{
  "test_plans": [
    {
      "select_from_tag": {
        "XTP-28287": "XTP-28287",
        "XTP-28287": "XTP-33486",
        "default": "XTP-28287"
      }
    }
  ],
  "name": {
    "env": "CI_COMMIT_BRANCH",
    "maps_to": {
      "default": "branch execution",
      "main": "main branch execution"
    }
  },
  "chart_info": {
    "env": "DEPLOYMENT_CONFIGURATION",
    "maps_to": {
      "default": "charts/ska-csp-lmc-low/Chart.yaml"
    }
  },
  "test_report": "build/reports/report.json",
  "jira_url": "https://jira.skatelescope.org",
  "project": {
    "id": "XTP",
    "issuetype_id": 11602,
    "customfield_mapping": {
      "start_date": "customfield_11918",
      "end_date": "customfield_11917",
      "test_plans": "customfield_11927",
      "test_environments": "customfield_11925"
    }
  },
  "description": "Test execution results as generated from https://gitlab.com/ska-telescope/ska-csp-lmc-low\n",
  "test_environments": [
    {
      "env": "TEST_ENV",
      "maps_to": {
        "default": "STFC-CI",
        "ITF-LOW": "ITF-LOW",
        "ITF-MID": "ITF-MID",
        "PSI-LOW-TOPIC": "PSI-LOW-TOPIC",
        "PSI-MID-MDA": "PSI-MID-MDA",
        "PSI-LOW": "PSI-LOW",
        "dev": "dev-testing"
      }
    }
  ],
  "labels": [
    {
      "env": "CI_COMMIT_BRANCH",
      "maps_to": {
        "default": "branch",
        "master": "master",
        "main": "main"
      }
    }
  ],
  "versions": [
    {
      "env": "CI_COMMIT_BRANCH",
      "maps_to": {
        "default": "",
        "master": "PI25",
        "main": "PI25"
      }
    }
  ],
  "environment_variables": [
    "CI_JOB_URL",
    "CI_COMMIT_TITLE",
    "CI_JOB_STARTED_AT"
  ]
}